{
    "count": 1187,
    "pages": 12,
    "current_page": 1,
    "results": [
    {
    "rank": 1,
    "ticker": "SPY",
    "name": "SPDR S&P 500 ETF Trust",
    "mentions": "265",
    "upvotes": "1110",
    "rank_24h_ago": "2",
    "mentions_24h_ago": "802"
    },
    {
    "rank": 2,
    "ticker": "TSLA",
    "name": "Tesla",
    "mentions": "250",
    "upvotes": "8628",
    "rank_24h_ago": "1",
    "mentions_24h_ago": "1059"
    },
    {
    "rank": 3,
    "ticker": "GME",
    "name": "GameStop",
    "mentions": "120",
    "upvotes": "3977",
    "rank_24h_ago": "3",
    "mentions_24h_ago": "242"
    },
    {
    "rank": 4,
    "ticker": "AAPL",
    "name": "Apple",
    "mentions": "80",
    "upvotes": "136",
    "rank_24h_ago": "5",
    "mentions_24h_ago": "193"
    },
    {
    "rank": 5,
    "ticker": "AMC",
    "name": "AMC Entertainment",
    "mentions": "53",
    "upvotes": "178",
    "rank_24h_ago": "19",
    "mentions_24h_ago": "52"
    },
    {
    "rank": 6,
    "ticker": "NVDA",
    "name": "NVIDIA",
    "mentions": "47",
    "upvotes": "461",
    "rank_24h_ago": "9",
    "mentions_24h_ago": "118"
    },
    {
    "rank": 7,
    "ticker": "AMD",
    "name": "AMD",
    "mentions": "41",
    "upvotes": "63",
    "rank_24h_ago": "10",
    "mentions_24h_ago": "111"
    },
    {
    "rank": 8,
    "ticker": "TGT",
    "name": "Target",
    "mentions": "40",
    "upvotes": "154",
    "rank_24h_ago": "11",
    "mentions_24h_ago": "76"
    },
    {
    "rank": 9,
    "ticker": "MSFT",
    "name": "Microsoft",
    "mentions": "40",
    "upvotes": "120",
    "rank_24h_ago": "27",
    "mentions_24h_ago": "44"
    },
    {
    "rank": 10,
    "ticker": "QQQ",
    "name": "Invesco QQQ ETF",
    "mentions": "40",
    "upvotes": "107",
    "rank_24h_ago": "6",
    "mentions_24h_ago": "140"
    },
    {
    "rank": 11,
    "ticker": "BBY",
    "name": "Best Buy",
    "mentions": "38",
    "upvotes": "88",
    "rank_24h_ago": "29",
    "mentions_24h_ago": "47"
    },
    {
    "rank": 12,
    "ticker": "ZM",
    "name": "Zoom",
    "mentions": "38",
    "upvotes": "152",
    "rank_24h_ago": "77",
    "mentions_24h_ago": "12"
    },
    {
    "rank": 13,
    "ticker": "ATER",
    "name": "Aterian",
    "mentions": "37",
    "upvotes": "94",
    "rank_24h_ago": "20",
    "mentions_24h_ago": "60"
    },
    {
    "rank": 14,
    "ticker": "SQQQ",
    "name": "ProShares Trust - ProShares UltraPro Short QQQ",
    "mentions": "37",
    "upvotes": "115",
    "rank_24h_ago": "18",
    "mentions_24h_ago": "64"
    },
    {
    "rank": 15,
    "ticker": "BBIG",
    "name": "Vinco Ventures",
    "mentions": "31",
    "upvotes": "74",
    "rank_24h_ago": "40",
    "mentions_24h_ago": "39"
    },
    {
    "rank": 16,
    "ticker": "ARKK",
    "name": "ARK Investment Management LLC - ARK Innovation ETF",
    "mentions": "30",
    "upvotes": "870",
    "rank_24h_ago": "21",
    "mentions_24h_ago": "57"
    },
    {
    "rank": 17,
    "ticker": "VTI",
    "name": "Vanguard Total Stock Market ETF",
    "mentions": "29",
    "upvotes": "196",
    "rank_24h_ago": "24",
    "mentions_24h_ago": "48"
    },
    {
    "rank": 18,
    "ticker": "AMZN",
    "name": "Amazon",
    "mentions": "28",
    "upvotes": "84",
    "rank_24h_ago": "12",
    "mentions_24h_ago": "76"
    },
    {
    "rank": 19,
    "ticker": "SP",
    "name": "SP Plus Corporation",
    "mentions": "27",
    "upvotes": "79",
    "rank_24h_ago": "35",
    "mentions_24h_ago": "37"
    },
    {
    "rank": 20,
    "ticker": "TQQQ",
    "name": "ProShares Trust - ProShares UltraPro QQQ",
    "mentions": "27",
    "upvotes": "37",
    "rank_24h_ago": "15",
    "mentions_24h_ago": "70"
    },
    {
    "rank": 21,
    "ticker": "DTE",
    "name": "DTE Energy",
    "mentions": "26",
    "upvotes": "273",
    "rank_24h_ago": "14",
    "mentions_24h_ago": "74"
    },
    {
    "rank": 22,
    "ticker": "TA",
    "name": "TravelCenters of America",
    "mentions": "25",
    "upvotes": "86",
    "rank_24h_ago": "26",
    "mentions_24h_ago": "41"
    },
    {
    "rank": 23,
    "ticker": "COST",
    "name": "Costco",
    "mentions": "25",
    "upvotes": "65",
    "rank_24h_ago": "25",
    "mentions_24h_ago": "47"
    },
    {
    "rank": 24,
    "ticker": "YOU",
    "name": "CLEAR Secure",
    "mentions": "24",
    "upvotes": "63",
    "rank_24h_ago": "33",
    "mentions_24h_ago": "37"
    },
    {
    "rank": 25,
    "ticker": "AI",
    "name": "C3 AI",
    "mentions": "23",
    "upvotes": "218",
    "rank_24h_ago": "31",
    "mentions_24h_ago": "34"
    },
    {
    "rank": 26,
    "ticker": "TD",
    "name": "Toronto Dominion Bank",
    "mentions": "21",
    "upvotes": "48",
    "rank_24h_ago": "50",
    "mentions_24h_ago": "21"
    },
    {
    "rank": 27,
    "ticker": "TWTR",
    "name": "Twitter",
    "mentions": "19",
    "upvotes": "210",
    "rank_24h_ago": "13",
    "mentions_24h_ago": "75"
    },
    {
    "rank": 28,
    "ticker": "IT",
    "name": "Gartner",
    "mentions": "19",
    "upvotes": "57",
    "rank_24h_ago": "37",
    "mentions_24h_ago": "33"
    },
    {
    "rank": 29,
    "ticker": "PLTR",
    "name": "Palantir",
    "mentions": "19",
    "upvotes": "134",
    "rank_24h_ago": "55",
    "mentions_24h_ago": "22"
    },
    {
    "rank": 30,
    "ticker": "WMT",
    "name": "Walmart",
    "mentions": "18",
    "upvotes": "52",
    "rank_24h_ago": "23",
    "mentions_24h_ago": "52"
    },
    {
    "rank": 31,
    "ticker": "UP",
    "name": "Wheels Up",
    "mentions": "17",
    "upvotes": "45",
    "rank_24h_ago": "43",
    "mentions_24h_ago": "29"
    },
    {
    "rank": 32,
    "ticker": "FOR",
    "name": "Forestar Group",
    "mentions": "16",
    "upvotes": "63",
    "rank_24h_ago": "32",
    "mentions_24h_ago": "39"
    },
    {
    "rank": 33,
    "ticker": "IS",
    "name": "IronSource",
    "mentions": "16",
    "upvotes": "94",
    "rank_24h_ago": "41",
    "mentions_24h_ago": "33"
    },
    {
    "rank": 34,
    "ticker": "UPST",
    "name": "Upstart",
    "mentions": "16",
    "upvotes": "61",
    "rank_24h_ago": "63",
    "mentions_24h_ago": "18"
    },
    {
    "rank": 35,
    "ticker": "ES",
    "name": "Eversource Energy",
    "mentions": "16",
    "upvotes": "51",
    "rank_24h_ago": "57",
    "mentions_24h_ago": "25"
    },
    {
    "rank": 36,
    "ticker": "GM",
    "name": "General Motors",
    "mentions": "16",
    "upvotes": "81",
    "rank_24h_ago": "34",
    "mentions_24h_ago": "33"
    },
    {
    "rank": 37,
    "ticker": "ROST",
    "name": "Ross Stores",
    "mentions": "15",
    "upvotes": "79",
    "rank_24h_ago": "7",
    "mentions_24h_ago": "86"
    },
    {
    "rank": 38,
    "ticker": "BE",
    "name": "Bloom Energy",
    "mentions": "15",
    "upvotes": "106",
    "rank_24h_ago": "47",
    "mentions_24h_ago": "27"
    },
    {
    "rank": 39,
    "ticker": "FB",
    "name": "Meta (Facebook)",
    "mentions": "15",
    "upvotes": "33",
    "rank_24h_ago": "16",
    "mentions_24h_ago": "58"
    },
    {
    "rank": 40,
    "ticker": "SOFI",
    "name": "SoFi",
    "mentions": "14",
    "upvotes": "28",
    "rank_24h_ago": "30",
    "mentions_24h_ago": "33"
    },
    {
    "rank": 41,
    "ticker": "VOO",
    "name": "Vanguard S&amp;P 500 ETF",
    "mentions": "14",
    "upvotes": "52",
    "rank_24h_ago": "58",
    "mentions_24h_ago": "26"
    },
    {
    "rank": 42,
    "ticker": "ALL",
    "name": "Allstate",
    "mentions": "14",
    "upvotes": "56",
    "rank_24h_ago": "49",
    "mentions_24h_ago": "27"
    },
    {
    "rank": 43,
    "ticker": "DE",
    "name": "Deere & Company",
    "mentions": "13",
    "upvotes": "49",
    "rank_24h_ago": "4",
    "mentions_24h_ago": "201"
    },
    {
    "rank": 44,
    "ticker": "FL",
    "name": "Foot Locker",
    "mentions": "13",
    "upvotes": "38",
    "rank_24h_ago": "8",
    "mentions_24h_ago": "98"
    },
    {
    "rank": 45,
    "ticker": "ESG",
    "name": "FlexShares Trust - FlexShares STOXX US ESG Impact Index Fund",
    "mentions": "12",
    "upvotes": "29",
    "rank_24h_ago": "17",
    "mentions_24h_ago": "53"
    },
    {
    "rank": 46,
    "ticker": "WISH",
    "name": "ContextLogic (wish.com)",
    "mentions": "12",
    "upvotes": "66",
    "rank_24h_ago": "131",
    "mentions_24h_ago": "7"
    },
    {
    "rank": 47,
    "ticker": "IQ",
    "name": "iQIYI",
    "mentions": "12",
    "upvotes": "12",
    "rank_24h_ago": "60",
    "mentions_24h_ago": "16"
    },
    {
    "rank": 48,
    "ticker": "SO",
    "name": "Southern Company",
    "mentions": "12",
    "upvotes": "5",
    "rank_24h_ago": "65",
    "mentions_24h_ago": "16"
    },
    {
    "rank": 49,
    "ticker": "OI",
    "name": "O-I Glass",
    "mentions": "11",
    "upvotes": "26",
    "rank_24h_ago": "82",
    "mentions_24h_ago": "12"
    },
    {
    "rank": 50,
    "ticker": "ASML",
    "name": "ASML",
    "mentions": "11",
    "upvotes": "18",
    "rank_24h_ago": "471",
    "mentions_24h_ago": "3"
    },
    {
    "rank": 51,
    "ticker": "IBKR",
    "name": "Interactive Brokers",
    "mentions": "11",
    "upvotes": "15",
    "rank_24h_ago": "173",
    "mentions_24h_ago": "4"
    },
    {
    "rank": 52,
    "ticker": "ROKU",
    "name": "Roku",
    "mentions": "10",
    "upvotes": "22",
    "rank_24h_ago": "83",
    "mentions_24h_ago": "14"
    },
    {
    "rank": 53,
    "ticker": "LULU",
    "name": "lululemon athletica",
    "mentions": "10",
    "upvotes": "61",
    "rank_24h_ago": "881",
    "mentions_24h_ago": "1"
    },
    {
    "rank": 54,
    "ticker": "CD",
    "name": "Chindata",
    "mentions": "10",
    "upvotes": "21",
    "rank_24h_ago": "200",
    "mentions_24h_ago": "4"
    },
    {
    "rank": 55,
    "ticker": "GOOG",
    "name": "Alphabet (Google)",
    "mentions": "10",
    "upvotes": "45",
    "rank_24h_ago": "42",
    "mentions_24h_ago": "33"
    },
    {
    "rank": 56,
    "ticker": "SNOW",
    "name": "Snowflake",
    "mentions": "9",
    "upvotes": "46",
    "rank_24h_ago": "66",
    "mentions_24h_ago": "12"
    },
    {
    "rank": 57,
    "ticker": "DOW",
    "name": "Dow",
    "mentions": "9",
    "upvotes": "36",
    "rank_24h_ago": "64",
    "mentions_24h_ago": "18"
    },
    {
    "rank": 58,
    "ticker": "AM",
    "name": "Antero Midstream",
    "mentions": "9",
    "upvotes": "26",
    "rank_24h_ago": "44",
    "mentions_24h_ago": "30"
    },
    {
    "rank": 59,
    "ticker": "NFLX",
    "name": "Netflix",
    "mentions": "9",
    "upvotes": "74",
    "rank_24h_ago": "59",
    "mentions_24h_ago": "14"
    },
    {
    "rank": 60,
    "ticker": "CC",
    "name": "Chemours",
    "mentions": "9",
    "upvotes": "15",
    "rank_24h_ago": "75",
    "mentions_24h_ago": "16"
    },
    {
    "rank": 61,
    "ticker": "DT",
    "name": "Dynatrace",
    "mentions": "8",
    "upvotes": "16",
    "rank_24h_ago": "121",
    "mentions_24h_ago": "6"
    },
    {
    "rank": 62,
    "ticker": "AMP",
    "name": "Ameriprise Financial",
    "mentions": "8",
    "upvotes": "11",
    "rank_24h_ago": "74",
    "mentions_24h_ago": "11"
    },
    {
    "rank": 63,
    "ticker": "WE",
    "name": "WeWork",
    "mentions": "8",
    "upvotes": "42",
    "rank_24h_ago": "51",
    "mentions_24h_ago": "22"
    },
    {
    "rank": 64,
    "ticker": "WW",
    "name": "Weight Watchers",
    "mentions": "8",
    "upvotes": "121",
    "rank_24h_ago": "135",
    "mentions_24h_ago": "7"
    },
    {
    "rank": 65,
    "ticker": "IP",
    "name": "International Paper",
    "mentions": "8",
    "upvotes": "41",
    "rank_24h_ago": "134",
    "mentions_24h_ago": "6"
    },
    {
    "rank": 66,
    "ticker": "GO",
    "name": "Grocery Outlet",
    "mentions": "8",
    "upvotes": "12",
    "rank_24h_ago": "80",
    "mentions_24h_ago": "11"
    },
    {
    "rank": 67,
    "ticker": "HD",
    "name": "Home Depot",
    "mentions": "8",
    "upvotes": "16",
    "rank_24h_ago": "118",
    "mentions_24h_ago": "3"
    },
    {
    "rank": 68,
    "ticker": "BA",
    "name": "Boeing",
    "mentions": "8",
    "upvotes": "23",
    "rank_24h_ago": "67",
    "mentions_24h_ago": "17"
    },
    {
    "rank": 69,
    "ticker": "NIO",
    "name": "NIO",
    "mentions": "8",
    "upvotes": "16",
    "rank_24h_ago": "48",
    "mentions_24h_ago": "27"
    },
    {
    "rank": 70,
    "ticker": "AZO",
    "name": "AutoZone",
    "mentions": "7",
    "upvotes": "12",
    "rank_24h_ago": "128",
    "mentions_24h_ago": "7"
    },
    {
    "rank": 71,
    "ticker": "AC",
    "name": "Associated Capital Group",
    "mentions": "7",
    "upvotes": "24",
    "rank_24h_ago": "1134",
    "mentions_24h_ago": "1"
    },
    {
    "rank": 72,
    "ticker": "CSCO",
    "name": "Cisco",
    "mentions": "7",
    "upvotes": "40",
    "rank_24h_ago": "53",
    "mentions_24h_ago": "20"
    },
    {
    "rank": 73,
    "ticker": "BJ",
    "name": "BJ's Wholesale Club",
    "mentions": "7",
    "upvotes": "14",
    "rank_24h_ago": "36",
    "mentions_24h_ago": "23"
    },
    {
    "rank": 74,
    "ticker": "ME",
    "name": "23andMe",
    "mentions": "7",
    "upvotes": "27",
    "rank_24h_ago": "79",
    "mentions_24h_ago": "14"
    },
    {
    "rank": 75,
    "ticker": "DNA",
    "name": "Ginkgo Bioworks",
    "mentions": "7",
    "upvotes": "20",
    "rank_24h_ago": "230",
    "mentions_24h_ago": "4"
    },
    {
    "rank": 76,
    "ticker": "DM",
    "name": "Desktop Metal",
    "mentions": "7",
    "upvotes": "31",
    "rank_24h_ago": "71",
    "mentions_24h_ago": "13"
    },
    {
    "rank": 77,
    "ticker": "VT",
    "name": "Vanguard Group, Inc. - Vanguard Total World Stock ETF",
    "mentions": "7",
    "upvotes": "41",
    "rank_24h_ago": "210",
    "mentions_24h_ago": "5"
    },
    {
    "rank": 78,
    "ticker": "FCF",
    "name": "First Commonwealth Financial Corp",
    "mentions": "7",
    "upvotes": "26",
    "rank_24h_ago": "103",
    "mentions_24h_ago": "9"
    },
    {
    "rank": 79,
    "ticker": "ET",
    "name": "Energy Transfer Partners",
    "mentions": "7",
    "upvotes": "12",
    "rank_24h_ago": "72",
    "mentions_24h_ago": "15"
    },
    {
    "rank": 80,
    "ticker": "IBM",
    "name": "IBM",
    "mentions": "7",
    "upvotes": "47",
    "rank_24h_ago": "107",
    "mentions_24h_ago": "6"
    },
    {
    "rank": 81,
    "ticker": "SOXL",
    "name": "Direxion Shares ETF Trust - Direxion Daily Semiconductor Bull 3X Share",
    "mentions": "7",
    "upvotes": "12",
    "rank_24h_ago": "73",
    "mentions_24h_ago": "13"
    },
    {
    "rank": 82,
    "ticker": "RICK",
    "name": "RCI Hospitality Holdings",
    "mentions": "6",
    "upvotes": "441",
    "rank_24h_ago": "99",
    "mentions_24h_ago": "10"
    },
    {
    "rank": 83,
    "ticker": "WDAY",
    "name": "Workday",
    "mentions": "6",
    "upvotes": "14",
    "rank_24h_ago": "312",
    "mentions_24h_ago": "1"
    },
    {
    "rank": 84,
    "ticker": "ULTA",
    "name": "ULTA Beauty",
    "mentions": "6",
    "upvotes": "18",
    "rank_24h_ago": "256",
    "mentions_24h_ago": "2"
    },
    {
    "rank": 85,
    "ticker": "DG",
    "name": "Dollar General",
    "mentions": "6",
    "upvotes": "12",
    "rank_24h_ago": "76",
    "mentions_24h_ago": "12"
    },
    {
    "rank": 86,
    "ticker": "ATVI",
    "name": "Activision Blizzard",
    "mentions": "6",
    "upvotes": "19",
    "rank_24h_ago": "89",
    "mentions_24h_ago": "11"
    },
    {
    "rank": 87,
    "ticker": "ZIM",
    "name": "ZIM Integrated Shipping Services",
    "mentions": "6",
    "upvotes": "11",
    "rank_24h_ago": "84",
    "mentions_24h_ago": "11"
    },
    {
    "rank": 88,
    "ticker": "UNH",
    "name": "UnitedHealth",
    "mentions": "6",
    "upvotes": "6",
    "rank_24h_ago": "954",
    "mentions_24h_ago": "1"
    },
    {
    "rank": 89,
    "ticker": "MF",
    "name": "Missfresh",
    "mentions": "6",
    "upvotes": "76",
    "rank_24h_ago": "124",
    "mentions_24h_ago": "5"
    },
    {
    "rank": 90,
    "ticker": "SHOP",
    "name": "Shopify",
    "mentions": "6",
    "upvotes": "24",
    "rank_24h_ago": "54",
    "mentions_24h_ago": "23"
    },
    {
    "rank": 91,
    "ticker": "HE",
    "name": "Hawaiian Electric Industries",
    "mentions": "6",
    "upvotes": "189",
    "rank_24h_ago": "125",
    "mentions_24h_ago": "6"
    },
    {
    "rank": 92,
    "ticker": "ICE",
    "name": "Intercontinental Exchange",
    "mentions": "6",
    "upvotes": "6",
    "rank_24h_ago": "52",
    "mentions_24h_ago": "23"
    },
    {
    "rank": 93,
    "ticker": "BIG",
    "name": "Big Lots",
    "mentions": "6",
    "upvotes": "240",
    "rank_24h_ago": "115",
    "mentions_24h_ago": "7"
    },
    {
    "rank": 94,
    "ticker": "UVXY",
    "name": "ProShares Trust - ProShares Ultra VIX Short-Term Futures ETF",
    "mentions": "6",
    "upvotes": "11",
    "rank_24h_ago": "22",
    "mentions_24h_ago": "46"
    },
    {
    "rank": 95,
    "ticker": "PTON",
    "name": "Peloton",
    "mentions": "6",
    "upvotes": "47",
    "rank_24h_ago": "202",
    "mentions_24h_ago": "5"
    },
    {
    "rank": 96,
    "ticker": "ON",
    "name": "ON Semiconductor",
    "mentions": "6",
    "upvotes": "9",
    "rank_24h_ago": "62",
    "mentions_24h_ago": "21"
    },
    {
    "rank": 97,
    "ticker": "ANF",
    "name": "Abercrombie &amp; Fitch",
    "mentions": "5",
    "upvotes": "45",
    "rank_24h_ago": "204",
    "mentions_24h_ago": "3"
    },
    {
    "rank": 98,
    "ticker": "DKS",
    "name": "Dick's Sporting Goods",
    "mentions": "5",
    "upvotes": "12",
    "rank_24h_ago": "263",
    "mentions_24h_ago": "1"
    },
    {
    "rank": 99,
    "ticker": "NICE",
    "name": "NICE",
    "mentions": "5",
    "upvotes": "8",
    "rank_24h_ago": "973",
    "mentions_24h_ago": "1"
    },
    {
    "rank": 100,
    "ticker": "WOOF",
    "name": "Petco",
    "mentions": "5",
    "upvotes": "16",
    "rank_24h_ago": "221",
    "mentions_24h_ago": "3"
    }
    ]
    }